7:00 AM
7:15 AM
7:30 AM
7:45 AM
8:00 AM
8:15 AM
8:30 AM
8:45 AM
9:00 AM
9:15 AM
9:30 AM
9:45 AM
10:00 AM
10:15 AM
10:30 AM
10:45 AM
11:00 AM
11:15 AM
11:30 AM
11:45 AM
12:00 PM
12:15 PM
12:30 PM
12:45 PM
1:15 PM
1:45 PM
2:15 PM
2:45 PM
3:15 PM
3:45 PM
4:15 PM
4:45 PM
5:15 PM
5:45 PM
6:15 PM
6:45 PM
7:15 PM
7:45 PM
8:15 PM
8:45 PM
9:15 PM
9:45 PM
10:00 PM
10:15 PM
10:45 PM
11:15 PM
11:45 PM