7:49 AM
8:04 AM
8:34 AM
8:49 AM
9:19 AM
9:34 AM
10:04 AM
10:19 AM
10:49 AM
11:04 AM
11:34 AM
11:49 AM
12:19 PM
12:34 PM
1:04 PM
1:19 PM
1:49 PM
2:04 PM
2:34 PM
2:49 PM
3:04 PM
3:19 PM
3:49 PM
4:19 PM
4:34 PM
5:04 PM
5:19 PM
5:49 PM
6:04 PM
6:34 PM
6:49 PM
7:19 PM
7:34 PM
8:04 PM
8:19 PM
8:49 PM
9:04 PM
9:34 PM
9:49 PM
10:19 PM
10:34 PM
11:04 PM
11:19 PM
11:49 PM
12:19 AM
12:34 AM