7:40 AM
7:55 AM
8:10 AM
8:25 AM
8:40 AM
8:55 AM
9:10 AM
9:25 AM
9:40 AM
9:55 AM
10:10 AM
10:25 AM
10:40 AM
10:55 AM
11:10 AM
11:25 AM
11:40 AM
11:55 AM
12:10 PM
12:25 PM
12:40 PM
12:55 PM
1:10 PM
1:25 PM
1:55 PM
2:25 PM
2:55 PM
3:25 PM
3:55 PM
4:25 PM
4:55 PM
5:25 PM
5:55 PM
6:25 PM
6:55 PM
7:25 PM
7:55 PM
8:25 PM
8:55 PM
9:25 PM
9:55 PM
10:25 PM
10:40 PM
10:55 PM
11:25 PM
11:55 PM
12:25 AM