7:23 AM
7:38 AM
7:53 AM
8:08 AM
8:23 AM
8:38 AM
8:53 AM
9:08 AM
9:23 AM
9:38 AM
9:53 AM
10:08 AM
10:23 AM
10:38 AM
10:53 AM
11:08 AM
11:23 AM
11:38 AM
11:53 AM
12:08 PM
12:23 PM
12:38 PM
12:53 PM
1:08 PM
1:38 PM
2:08 PM
2:38 PM
3:08 PM
3:38 PM
4:08 PM
4:38 PM
5:08 PM
5:38 PM
6:08 PM
6:38 PM
7:08 PM
7:38 PM
8:08 PM
8:38 PM
9:08 PM
9:38 PM
10:08 PM
10:23 PM
10:38 PM
11:08 PM
11:38 PM
12:08 AM